x,y
0.5546325878594249, 41.356673960612696
0.5680511182108626, 42.14442013129103
0.5814696485623003, 43.12910284463896
0.594888178913738, 43.91684901531729
0.6127795527156549, 44.90153172866521
0.6261980830670927, 45.68927789934355
0.6396166134185304, 46.47702407002188
0.6530351437699681, 47.26477024070022
0.6709265175718849, 48.249452954048145
0.688817891373802, 49.23413566739606
0.7022364217252396, 50.21881838074398
0.7246006389776358, 51.40043763676149
0.7424920127795528, 52.38512035010941
0.7603833865814698, 53.36980306345733
0.7827476038338657, 54.354485776805255
0.8095846645367413, 55.53610503282276
0.8274760383386581, 56.52078774617068
0.8498402555910542, 57.505470459518605
0.8677316293929713, 58.49015317286652
0.8856230031948882, 59.67177242888403
0.8990415335463258, 60.459518599562365
0.9169329073482426, 61.44420131291029
0.9348242811501599, 62.62582056892779
0.9527156549520768, 63.610503282275715
0.9706070287539936, 64.59518599562364
0.9840255591054312, 65.38293216630197
0.997444089456869, 66.1706783369803
1.0108626198083068, 67.15536105032822
1.0242811501597444, 67.94310722100657
1.0376996805111822, 68.7308533916849
1.0511182108626198, 69.32166301969366
1.0690095846645369, 70.10940919037199
1.0869009584664537, 70.70021881838075
1.1047923322683706, 71.2910284463895
1.1182108626198082, 71.88183807439825
1.136102236421725, 72.472647702407
1.1584664536741214, 73.06345733041576
1.1763578274760382, 73.65426695842451
1.2031948881789136, 74.24507658643327
1.2255591054313097, 74.83588621444201
1.247923322683706, 75.42669584245077
